<define-tag pagetitle>DSA-4964-1 grilo</define-tag>
<define-tag report_date>2021-8-27</define-tag>
<define-tag secrefs>CVE-2021-39365 Bug#992971</define-tag>
<define-tag packages>grilo</define-tag>
<define-tag isvulnerable>yes</define-tag>
<define-tag fixed>yes</define-tag>
<define-tag fixed-section>no</define-tag>

#use wml::debian::security



</dl>
