<define-tag pagetitle>DSA-4945-1 webkit2gtk</define-tag>
<define-tag report_date>2021-7-28</define-tag>
<define-tag secrefs>CVE-2021-21775 CVE-2021-21779 CVE-2021-30663 CVE-2021-30665 CVE-2021-30689 CVE-2021-30720 CVE-2021-30734 CVE-2021-30744 CVE-2021-30749 CVE-2021-30758 CVE-2021-30795 CVE-2021-30797 CVE-2021-30799</define-tag>
<define-tag packages>webkit2gtk</define-tag>
<define-tag isvulnerable>yes</define-tag>
<define-tag fixed>yes</define-tag>
<define-tag fixed-section>no</define-tag>

#use wml::debian::security



</dl>
