<define-tag pagetitle>DSA-4921-1 nginx</define-tag>
<define-tag report_date>2021-5-28</define-tag>
<define-tag secrefs>CVE-2021-23017 Bug#989095</define-tag>
<define-tag packages>nginx</define-tag>
<define-tag isvulnerable>yes</define-tag>
<define-tag fixed>yes</define-tag>
<define-tag fixed-section>no</define-tag>

#use wml::debian::security



</dl>
