<define-tag pagetitle>DSA-4736-1 firefox-esr</define-tag>
<define-tag report_date>2020-7-29</define-tag>
<define-tag secrefs>CVE-2020-6463 CVE-2020-6514 CVE-2020-15652 CVE-2020-15659</define-tag>
<define-tag packages>firefox-esr</define-tag>
<define-tag isvulnerable>yes</define-tag>
<define-tag fixed>yes</define-tag>
<define-tag fixed-section>no</define-tag>

#use wml::debian::security



</dl>
