<define-tag pagetitle>DSA-4738-1 ark</define-tag>
<define-tag report_date>2020-7-31</define-tag>
<define-tag secrefs>CVE-2020-16116</define-tag>
<define-tag packages>ark</define-tag>
<define-tag isvulnerable>yes</define-tag>
<define-tag fixed>yes</define-tag>
<define-tag fixed-section>no</define-tag>

#use wml::debian::security



</dl>
