<define-tag pagetitle>DSA-4638-1 chromium</define-tag>
<define-tag report_date>2020-3-10</define-tag>
<define-tag secrefs>CVE-2019-19880 CVE-2019-19923 CVE-2019-19925 CVE-2019-19926 CVE-2020-6381 CVE-2020-6382 CVE-2020-6383 CVE-2020-6384 CVE-2020-6385 CVE-2020-6386 CVE-2020-6387 CVE-2020-6388 CVE-2020-6389 CVE-2020-6390 CVE-2020-6391 CVE-2020-6392 CVE-2020-6393 CVE-2020-6394 CVE-2020-6395 CVE-2020-6396 CVE-2020-6397 CVE-2020-6398 CVE-2020-6399 CVE-2020-6400 CVE-2020-6401 CVE-2020-6402 CVE-2020-6403 CVE-2020-6404 CVE-2020-6405 CVE-2020-6406 CVE-2020-6407 CVE-2020-6408 CVE-2020-6409 CVE-2020-6410 CVE-2020-6411 CVE-2020-6412 CVE-2020-6413 CVE-2020-6414 CVE-2020-6415 CVE-2020-6416 CVE-2020-6418 CVE-2020-6420</define-tag>
<define-tag packages>chromium</define-tag>
<define-tag isvulnerable>yes</define-tag>
<define-tag fixed>yes</define-tag>
<define-tag fixed-section>no</define-tag>

#use wml::debian::security



</dl>
