<define-tag pagetitle>DLA-2583-1 activemq</define-tag>
<define-tag report_date>2021-03-08</define-tag>
<define-tag secrefs>CVE-2017-15709 CVE-2018-11775 CVE-2019-0222 CVE-2021-26117 Bug#890352 Bug#908950 Bug#982590</define-tag>
<define-tag packages>activemq</define-tag>
<define-tag isvulnerable>yes</define-tag>
<define-tag fixed>yes</define-tag>
<define-tag fixed-section>no</define-tag>

#use wml::debian::security

