<define-tag pagetitle>DLA-2737-1 openjdk-8</define-tag>
<define-tag report_date>2021-08-09</define-tag>
<define-tag secrefs>CVE-2021-2341 CVE-2021-2369 CVE-2021-2388</define-tag>
<define-tag packages>openjdk-8</define-tag>
<define-tag isvulnerable>yes</define-tag>
<define-tag fixed>yes</define-tag>
<define-tag fixed-section>no</define-tag>

#use wml::debian::security

