<define-tag pagetitle>DLA-1054-1 libgxps</define-tag>
<define-tag report_date>2017-8-12</define-tag>
<define-tag secrefs>CVE-2017-11590 Bug##870183</define-tag>
<define-tag packages>libgxps</define-tag>
<define-tag isvulnerable>yes</define-tag>
<define-tag fixed>yes</define-tag>
<define-tag fixed-section>no</define-tag>

#use wml::debian::security

