<define-tag pagetitle>DLA-2331-1 postgresql-9.6</define-tag>
<define-tag report_date>2020-08-17</define-tag>
<define-tag secrefs>CVE-2020-14350</define-tag>
<define-tag packages>postgresql-9.6</define-tag>
<define-tag isvulnerable>yes</define-tag>
<define-tag fixed>yes</define-tag>
<define-tag fixed-section>no</define-tag>

#use wml::debian::security

