<define-tag pagetitle>DLA-2139-1 dojo</define-tag>
<define-tag report_date>2020-03-12</define-tag>
<define-tag secrefs>CVE-2020-5258 CVE-2020-5259 Bug#953585 Bug#953587</define-tag>
<define-tag packages>dojo</define-tag>
<define-tag isvulnerable>yes</define-tag>
<define-tag fixed>yes</define-tag>
<define-tag fixed-section>no</define-tag>

#use wml::debian::security

