<define-tag pagetitle>DLA-2217-1 tomcat7</define-tag>
<define-tag report_date>2020-05-23</define-tag>
<define-tag secrefs>CVE-2020-9484</define-tag>
<define-tag packages>tomcat7</define-tag>
<define-tag isvulnerable>yes</define-tag>
<define-tag fixed>yes</define-tag>
<define-tag fixed-section>no</define-tag>

#use wml::debian::security
