<define-tag pagetitle>DLA-2416-1 thunderbird</define-tag>
<define-tag report_date>2020-10-27</define-tag>
<define-tag secrefs>CVE-2020-15683 CVE-2020-15969</define-tag>
<define-tag packages>thunderbird</define-tag>
<define-tag isvulnerable>yes</define-tag>
<define-tag fixed>yes</define-tag>
<define-tag fixed-section>no</define-tag>

#use wml::debian::security

