<define-tag pagetitle>DLA-1241-1 libkohana2-php</define-tag>
<define-tag report_date>2018-1-14</define-tag>
<define-tag secrefs>CVE-2016-10510</define-tag>
<define-tag packages>libkohana2-php</define-tag>
<define-tag isvulnerable>yes</define-tag>
<define-tag fixed>yes</define-tag>
<define-tag fixed-section>no</define-tag>

#use wml::debian::security

