<define-tag pagetitle>DLA-1452-1 wordpress</define-tag>
<define-tag report_date>2018-7-30</define-tag>
<define-tag secrefs>CVE-2016-5836 CVE-2018-12895 Bug#902876</define-tag>
<define-tag packages>wordpress</define-tag>
<define-tag isvulnerable>yes</define-tag>
<define-tag fixed>yes</define-tag>
<define-tag fixed-section>no</define-tag>

#use wml::debian::security

