<define-tag pagetitle>DLA-1414-1 mercurial</define-tag>
<define-tag report_date>2018-7-5</define-tag>
<define-tag secrefs>CVE-2017-9462 CVE-2017-17458 CVE-2018-1000132 Bug#861243 Bug#892964 Bug#901050</define-tag>
<define-tag packages>mercurial</define-tag>
<define-tag isvulnerable>yes</define-tag>
<define-tag fixed>yes</define-tag>
<define-tag fixed-section>no</define-tag>

#use wml::debian::security

