<define-tag pagetitle>DSA-4498-1 python-django</define-tag>
<define-tag report_date>2019-8-12</define-tag>
<define-tag secrefs>CVE-2019-14232 CVE-2019-14233 CVE-2019-14234 CVE-2019-14235 Bug#934026</define-tag>
<define-tag packages>python-django</define-tag>
<define-tag isvulnerable>yes</define-tag>
<define-tag fixed>yes</define-tag>
<define-tag fixed-section>no</define-tag>

#use wml::debian::security



</dl>
