<define-tag pagetitle>DLA-1705-1 sox</define-tag>
<define-tag report_date>2019-03-05</define-tag>
<define-tag secrefs>CVE-2017-11332 CVE-2017-11358 CVE-2017-11359 CVE-2017-15371 Bug#878809 Bug#870328</define-tag>
<define-tag packages>sox</define-tag>
<define-tag isvulnerable>yes</define-tag>
<define-tag fixed>yes</define-tag>
<define-tag fixed-section>no</define-tag>

#use wml::debian::security

