<define-tag pagetitle>DLA-2047-1 cups</define-tag>
<define-tag report_date>2019-12-22</define-tag>
<define-tag secrefs>CVE-2019-2228</define-tag>
<define-tag packages>cups</define-tag>
<define-tag isvulnerable>yes</define-tag>
<define-tag fixed>yes</define-tag>
<define-tag fixed-section>no</define-tag>

#use wml::debian::security

