<define-tag pagetitle>DLA-683-1 graphicsmagick</define-tag>
<define-tag report_date>2016-10-26</define-tag>
<define-tag secrefs>CVE-2016-7448 CVE-2016-7996 CVE-2016-7997 CVE-2016-8682 CVE-2016-8683 CVE-2016-8684</define-tag>
<define-tag packages>graphicsmagick</define-tag>
<define-tag isvulnerable>yes</define-tag>
<define-tag fixed>yes</define-tag>
<define-tag fixed-section>no</define-tag>

#use wml::debian::security

